<svg xmlns="http://www.w3.org/2000/svg" width="37" height="37" viewBox="0 0 37 37">
  <g id="Group_575" data-name="Group 575" transform="translate(-554 -143)">
    <g id="Ellipse_117" data-name="Ellipse 117" transform="translate(554 143)" fill="#fff" stroke="#4f9d4c" stroke-width="2">
      <circle cx="18.5" cy="18.5" r="18.5" stroke="none"/>
      <circle cx="18.5" cy="18.5" r="17.5" fill="none"/>
    </g>
    <g id="Group_295" data-name="Group 295" transform="translate(-314.744 -48)">
      <g id="Ellipse_113" data-name="Ellipse 113" transform="translate(877.744 200)" fill="#fff" stroke="#707070" stroke-width="1">
        <circle cx="9.5" cy="9.5" r="9.5" stroke="none"/>
        <circle cx="9.5" cy="9.5" r="9" fill="none"/>
      </g>
      <path id="Path_2" data-name="Path 2" d="M2.742,10.988c1.52,0,2.758-2.465,2.764-5.5S4.285,0,2.764,0,.006,2.465,0,5.5,1.221,10.991,2.742,10.988Z" transform="translate(896.748 205.136) rotate(121)" fill="#707070"/>
      <path id="Path_3" data-name="Path 3" d="M2.762,10.978c1.522,0,2.753-2.454,2.749-5.486S4.271,0,2.749,0,0,2.454,0,5.486,1.24,10.976,2.762,10.978Z" transform="matrix(0.259, 0.966, -0.966, 0.259, 889.722, 199.482)" fill="#707070"/>
      <g id="Group_294" data-name="Group 294" transform="translate(881.308 207.974)">
        <g id="Group_293" data-name="Group 293" transform="translate(1.103)">
          <g id="Ellipse_114" data-name="Ellipse 114" transform="translate(0.334 0.026)" fill="#707070" stroke="#707070" stroke-width="1">
            <ellipse cx="4" cy="4.5" rx="4" ry="4.5" stroke="none"/>
            <ellipse cx="4" cy="4.5" rx="3.5" ry="4" fill="none"/>
          </g>
        </g>
        <rect id="Rectangle_328" data-name="Rectangle 328" width="9" height="5" transform="translate(0.436 0.026)" fill="#fff"/>
      </g>
      <g id="Ellipse_115" data-name="Ellipse 115" transform="translate(882.744 208)" fill="#fff" stroke="#707070" stroke-width="1">
        <circle cx="1" cy="1" r="1" stroke="none"/>
        <circle cx="1" cy="1" r="0.5" fill="none"/>
      </g>
      <g id="Ellipse_116" data-name="Ellipse 116" transform="translate(887.744 208)" fill="#fff" stroke="#707070" stroke-width="1">
        <circle cx="1" cy="1" r="1" stroke="none"/>
        <circle cx="1" cy="1" r="0.5" fill="none"/>
      </g>
      <line id="Line_193" data-name="Line 193" x1="1.103" y1="3.308" transform="translate(887.372 197.5)" fill="none" stroke="#707070" stroke-width="1"/>
      <line id="Line_194" data-name="Line 194" y1="3.308" x2="1.103" transform="translate(888.474 197.5)" fill="none" stroke="#707070" stroke-width="1"/>
    </g>
  </g>
</svg>
