<svg xmlns="http://www.w3.org/2000/svg" width="17.86" height="20.517" viewBox="0 0 17.86 20.517">
  <g id="fsbeach" transform="translate(-665.5 -318.75)">
    <line id="Line_122" data-name="Line 122" x2="13.808" transform="translate(665.5 335.609)" fill="none" stroke="#237e20" stroke-width="1.5"/>
    <line id="Line_123" data-name="Line 123" y2="3.452" transform="translate(666.651 335.609)" fill="none" stroke="#237e20" stroke-width="1.5"/>
    <line id="Line_124" data-name="Line 124" y2="3.452" transform="translate(678.157 335.609)" fill="none" stroke="#237e20" stroke-width="1.5"/>
    <line id="Line_125" data-name="Line 125" x1="2.301" y2="4.603" transform="translate(678.157 331.006)" fill="none" stroke="#237e20" stroke-width="1.5"/>
    <line id="Line_126" data-name="Line 126" y1="16.109" x2="4.603" transform="translate(671.253 322.952)" fill="none" stroke="#237e20" stroke-width="1.5"/>
    <line id="Line_127" data-name="Line 127" x2="13.808" y2="3.452" transform="translate(668.952 321.801)" fill="none" stroke="#237e20" stroke-width="1.5"/>
    <line id="Line_128" data-name="Line 128" y1="2.301" x2="4.603" transform="translate(668.952 319.5)" fill="none" stroke="#237e20" stroke-width="1.5"/>
    <line id="Line_129" data-name="Line 129" x2="3.452" transform="translate(673.555 319.5)" fill="none" stroke="#237e20" stroke-width="1.5"/>
    <line id="Line_130" data-name="Line 130" x2="2.301" y2="1.151" transform="translate(677.006 319.5)" fill="none" stroke="#237e20" stroke-width="1.5"/>
    <line id="Line_131" data-name="Line 131" x1="3.452" y1="4.603" transform="translate(679.308 320.651)" fill="none" stroke="#237e20" stroke-width="1.5"/>
  </g>
</svg>
