<svg xmlns="http://www.w3.org/2000/svg" width="21" height="21" viewBox="0 0 21 21">
  <g id="fssurf" transform="translate(0 0)">
    <path id="Path_33" data-name="Path 33" d="M15.113,1.231h-.255L11.972,4.117A4.312,4.312,0,0,0,7.834,0V0H4.142V0A4.312,4.312,0,0,0,0,4.307V6.153H.267L3.9,12.192,1.23,14.859v.255A5.894,5.894,0,0,0,7.117,21h.255L21,7.373V7.118a5.894,5.894,0,0,0-5.887-5.887ZM10.746,4.307v.615H7.834V1.235A3.08,3.08,0,0,1,10.746,4.307ZM6.6,1.231V4.922H5.373V1.231ZM1.23,4.307A3.08,3.08,0,0,1,4.142,1.235V4.922H1.23ZM1.7,6.153H9.936L4.793,11.3ZM6.869,19.763a4.663,4.663,0,0,1-4.4-4.4L15.361,2.468a4.663,4.663,0,0,1,4.4,4.4Zm0,0" fill="#2b8228"/>
    <path id="Path_34" data-name="Path 34" d="M125.359,291.97l2.61,2.61,2.61-2.61-2.61-2.61Zm2.61.87-.87-.87.87-.87.87.87Zm0,0" transform="translate(-120.217 -277.491)" fill="#2b8228"/>
    <path id="Path_35" data-name="Path 35" d="M289.359,127.97l2.61,2.61,2.61-2.61-2.61-2.61Zm2.61.87-.87-.87.87-.87.87.87Zm0,0" transform="translate(-277.491 -120.217)" fill="#2b8228"/>
  </g>
</svg>
