<svg xmlns="http://www.w3.org/2000/svg" width="14.544" height="14.544" viewBox="0 0 14.544 14.544">
  <g id="pclose" transform="translate(-1750.308 -256.308)">
    <line id="Line_79" data-name="Line 79" y2="18.569" transform="translate(1764.145 257.015) rotate(45)" fill="none" stroke="#505050" stroke-width="2"/>
    <line id="Line_80" data-name="Line 80" x2="18.569" transform="translate(1751.015 257.015) rotate(45)" fill="none" stroke="#505050" stroke-width="2"/>
  </g>
</svg>
