<svg xmlns="http://www.w3.org/2000/svg" width="8.93" height="8.93" viewBox="0 0 8.93 8.93">
  <g id="perror" transform="translate(-1750.308 -256.308)">
    <line id="Line_79" data-name="Line 79" y2="10.629" transform="translate(1758.53 257.015) rotate(45)" fill="none" stroke="#b92c2c" stroke-width="2"/>
    <line id="Line_80" data-name="Line 80" x2="10.629" transform="translate(1751.015 257.015) rotate(45)" fill="none" stroke="#b92c2c" stroke-width="2"/>
  </g>
</svg>
