<svg xmlns="http://www.w3.org/2000/svg" width="20.951" height="29.797" viewBox="0 0 20.951 29.797">
  <g id="pin" transform="translate(-76)">
    <g id="Group_316" data-name="Group 316" transform="translate(76)">
      <g id="Group_315" data-name="Group 315" transform="translate(0)">
        <path id="Path_9" data-name="Path 9" d="M86.475,0a10.477,10.477,0,0,0-8.912,15.984l8.315,13.4a.873.873,0,0,0,.742.413h.007a.873.873,0,0,0,.742-.424l8.1-13.53A10.478,10.478,0,0,0,86.475,0Zm7.5,14.946-7.367,12.3-7.56-12.183a8.735,8.735,0,1,1,14.927-.118Z" transform="translate(-76)" fill="#717171"/>
      </g>
    </g>
    <g id="Group_318" data-name="Group 318" transform="translate(81.238 5.238)">
      <g id="Group_317" data-name="Group 317" transform="translate(0)">
        <path id="Path_10" data-name="Path 10" d="M171.238,90a5.238,5.238,0,1,0,5.238,5.238A5.244,5.244,0,0,0,171.238,90Zm0,8.741a3.5,3.5,0,1,1,3.5-3.5A3.506,3.506,0,0,1,171.238,98.741Z" transform="translate(-166 -90)" fill="#717171"/>
      </g>
    </g>
  </g>
</svg>
